#
# Wavefront material file
# Converted by Meshlab Group
#

newmtl material_0
Ka 0.200000 0.200000 0.200000
Kd 1.000000 1.000000 1.000000
Ks 1.000000 1.000000 1.000000
Tr 1.000000
illum 2
Ns 0.000000
map_Kd vieja_u1_v1.jpg

newmtl material_1
Ka 0.200000 0.200000 0.200000
Kd 1.000000 1.000000 1.000000
Ks 1.000000 1.000000 1.000000
Tr 1.000000
illum 2
Ns 0.000000
map_Kd vieja_u2_v1.jpg

newmtl material_2
Ka 0.200000 0.200000 0.200000
Kd 1.000000 1.000000 1.000000
Ks 1.000000 1.000000 1.000000
Tr 1.000000
illum 2
Ns 0.000000
map_Kd vieja_u3_v1.jpg

newmtl material_3
Ka 0.200000 0.200000 0.200000
Kd 1.000000 1.000000 1.000000
Ks 1.000000 1.000000 1.000000
Tr 1.000000
illum 2
Ns 0.000000
map_Kd vieja_u1_v2.jpg

newmtl material_4
Ka 0.200000 0.200000 0.200000
Kd 1.000000 1.000000 1.000000
Ks 1.000000 1.000000 1.000000
Tr 1.000000
illum 2
Ns 0.000000
map_Kd vieja_u2_v2.jpg

