{
  "accessors": [
    {
      "bufferView": 2,
      "componentType": 5126,
      "count": 65532,
      "max": [
        33.776439666748047,
        -4.7885398864746094,
        3.7534799575805664
      ],
      "min": [
        -33.566699981689453,
        -39.511199951171875,
        -1.1146199703216553
      ],
      "type": "VEC3"
    },
    {
      "bufferView": 2,
      "byteOffset": 786384,
      "componentType": 5126,
      "count": 65532,
      "max": [
        0.99993419647216797,
        0.983101487159729,
        0.99999994039535522
      ],
      "min": [
        -0.99446606636047363,
        -0.99968063831329346,
        -0.98089295625686646
      ],
      "type": "VEC3"
    },
    {
      "bufferView": 1,
      "componentType": 5126,
      "count": 65532,
      "max": [
        0.98268002271652222,
        0.99955999851226807
      ],
      "min": [
        0.0033899999689310789,
        0.0042599998414516449
      ],
      "type": "VEC2"
    },
    {
      "bufferView": 0,
      "componentType": 5125,
      "count": 323130,
      "max": [
        65531
      ],
      "min": [
        0
      ],
      "type": "SCALAR"
    },
    {
      "bufferView": 2,
      "byteOffset": 1572768,
      "componentType": 5126,
      "count": 65532,
      "max": [
        33.253398895263672,
        14.770739555358887,
        5.1344799995422363
      ],
      "min": [
        -22.305459976196289,
        -37.848548889160156,
        -0.5227699875831604
      ],
      "type": "VEC3"
    },
    {
      "bufferView": 2,
      "byteOffset": 2359152,
      "componentType": 5126,
      "count": 65532,
      "max": [
        0.99986332654953003,
        0.99961727857589722,
        0.99999958276748657
      ],
      "min": [
        -0.99958086013793945,
        -0.99994498491287231,
        -0.99759787321090698
      ],
      "type": "VEC3"
    },
    {
      "bufferView": 1,
      "byteOffset": 524256,
      "componentType": 5126,
      "count": 65532,
      "max": [
        0.96981000900268555,
        0.99922001361846924
      ],
      "min": [
        0.0032500000670552254,
        0.019239999353885651
      ],
      "type": "VEC2"
    },
    {
      "bufferView": 0,
      "byteOffset": 1292520,
      "componentType": 5125,
      "count": 325767,
      "max": [
        65531
      ],
      "min": [
        0
      ],
      "type": "SCALAR"
    },
    {
      "bufferView": 2,
      "byteOffset": 3145536,
      "componentType": 5126,
      "count": 65532,
      "max": [
        30.990619659423828,
        20.273689270019531,
        8.6300201416015625
      ],
      "min": [
        -34.628288269042969,
        -33.095649719238281,
        -1.4049099683761597
      ],
      "type": "VEC3"
    },
    {
      "bufferView": 2,
      "byteOffset": 3931920,
      "componentType": 5126,
      "count": 65532,
      "max": [
        0.99982869625091553,
        0.99992084503173828,
        1
      ],
      "min": [
        -0.99996918439865112,
        -0.99994498491287231,
        -0.98474365472793579
      ],
      "type": "VEC3"
    },
    {
      "bufferView": 1,
      "byteOffset": 1048512,
      "componentType": 5126,
      "count": 65532,
      "max": [
        0.96735000610351562,
        0.99955999851226807
      ],
      "min": [
        0.0021500000730156898,
        0.040529999881982803
      ],
      "type": "VEC2"
    },
    {
      "bufferView": 0,
      "byteOffset": 2595588,
      "componentType": 5125,
      "count": 319512,
      "max": [
        65531
      ],
      "min": [
        0
      ],
      "type": "SCALAR"
    },
    {
      "bufferView": 2,
      "byteOffset": 4718304,
      "componentType": 5126,
      "count": 65532,
      "max": [
        25.987829208374023,
        23.522480010986328,
        3.4904899597167969
      ],
      "min": [
        -49.155681610107422,
        -39.242221832275391,
        -1.4458299875259399
      ],
      "type": "VEC3"
    },
    {
      "bufferView": 2,
      "byteOffset": 5504688,
      "componentType": 5126,
      "count": 65532,
      "max": [
        0.9999656081199646,
        0.99992084503173828,
        0.99999994039535522
      ],
      "min": [
        -0.99995023012161255,
        -0.99997502565383911,
        -0.9399762749671936
      ],
      "type": "VEC3"
    },
    {
      "bufferView": 1,
      "byteOffset": 1572768,
      "componentType": 5126,
      "count": 65532,
      "max": [
        0.98918998241424561,
        0.99945002794265747
      ],
      "min": [
        0.0030400000978261232,
        0.053750000894069672
      ],
      "type": "VEC2"
    },
    {
      "bufferView": 0,
      "byteOffset": 3873636,
      "componentType": 5125,
      "count": 326907,
      "max": [
        65531
      ],
      "min": [
        0
      ],
      "type": "SCALAR"
    },
    {
      "bufferView": 2,
      "byteOffset": 6291072,
      "componentType": 5126,
      "count": 65532,
      "max": [
        44.993309020996094,
        18.96449089050293,
        8.8713397979736328
      ],
      "min": [
        -53.287330627441406,
        -42.832809448242188,
        -1.6168700456619263
      ],
      "type": "VEC3"
    },
    {
      "bufferView": 2,
      "byteOffset": 7077456,
      "componentType": 5126,
      "count": 65532,
      "max": [
        0.9997406005859375,
        0.99991786479949951,
        0.99999994039535522
      ],
      "min": [
        -0.99998718500137329,
        -0.9999656081199646,
        -0.96617615222930908
      ],
      "type": "VEC3"
    },
    {
      "bufferView": 1,
      "byteOffset": 2097024,
      "componentType": 5126,
      "count": 65532,
      "max": [
        0.98839998245239258,
        0.99773001670837402
      ],
      "min": [
        0.0028399999719113111,
        0.0077100000344216824
      ],
      "type": "VEC2"
    },
    {
      "bufferView": 0,
      "byteOffset": 5181264,
      "componentType": 5125,
      "count": 321030,
      "max": [
        65531
      ],
      "min": [
        0
      ],
      "type": "SCALAR"
    },
    {
      "bufferView": 2,
      "byteOffset": 7863840,
      "componentType": 5126,
      "count": 65532,
      "max": [
        45.994308471679688,
        8.3343095779418945,
        8.8713397979736328
      ],
      "min": [
        20.076910018920898,
        -19.677070617675781,
        -0.20723000168800354
      ],
      "type": "VEC3"
    },
    {
      "bufferView": 2,
      "byteOffset": 8650224,
      "componentType": 5126,
      "count": 65532,
      "max": [
        0.99975675344467163,
        0.99994963407516479,
        0.99998933076858521
      ],
      "min": [
        -0.99997013807296753,
        -0.99986296892166138,
        -0.86814588308334351
      ],
      "type": "VEC3"
    },
    {
      "bufferView": 1,
      "byteOffset": 2621280,
      "componentType": 5126,
      "count": 65532,
      "max": [
        0.98869001865386963,
        0.99813002347946167
      ],
      "min": [
        0.020419999957084656,
        0.14274999499320984
      ],
      "type": "VEC2"
    },
    {
      "bufferView": 0,
      "byteOffset": 6465384,
      "componentType": 5125,
      "count": 333765,
      "max": [
        65531
      ],
      "min": [
        0
      ],
      "type": "SCALAR"
    },
    {
      "bufferView": 2,
      "byteOffset": 9436608,
      "componentType": 5126,
      "count": 65532,
      "max": [
        49.462459564208984,
        14.393150329589844,
        8.0987701416015625
      ],
      "min": [
        -45.910968780517578,
        -38.661811828613281,
        -1.2036099433898926
      ],
      "type": "VEC3"
    },
    {
      "bufferView": 2,
      "byteOffset": 10222992,
      "componentType": 5126,
      "count": 65532,
      "max": [
        0.99612760543823242,
        0.99994963407516479,
        0.99999994039535522
      ],
      "min": [
        -0.99978834390640259,
        -0.9981849193572998,
        -0.80514925718307495
      ],
      "type": "VEC3"
    },
    {
      "bufferView": 1,
      "byteOffset": 3145536,
      "componentType": 5126,
      "count": 65532,
      "max": [
        0.98473000526428223,
        0.99484002590179443
      ],
      "min": [
        0.0036400000099092722,
        0.006399999838322401
      ],
      "type": "VEC2"
    },
    {
      "bufferView": 0,
      "byteOffset": 7800444,
      "componentType": 5125,
      "count": 303879,
      "max": [
        65531
      ],
      "min": [
        0
      ],
      "type": "SCALAR"
    },
    {
      "bufferView": 2,
      "byteOffset": 11009376,
      "componentType": 5126,
      "count": 65532,
      "max": [
        49.467288970947266,
        31.88909912109375,
        8.6300201416015625
      ],
      "min": [
        -57.854888916015625,
        -23.036989212036133,
        -1.4435900449752808
      ],
      "type": "VEC3"
    },
    {
      "bufferView": 2,
      "byteOffset": 11795760,
      "componentType": 5126,
      "count": 65532,
      "max": [
        0.9943082332611084,
        0.99998325109481812,
        1
      ],
      "min": [
        -0.99834150075912476,
        -0.99784225225448608,
        -0.98497217893600464
      ],
      "type": "VEC3"
    },
    {
      "bufferView": 1,
      "byteOffset": 3669792,
      "componentType": 5126,
      "count": 65532,
      "max": [
        0.9953799843788147,
        0.99712002277374268
      ],
      "min": [
        0.0036800000816583633,
        0.0036100000143051147
      ],
      "type": "VEC2"
    },
    {
      "bufferView": 0,
      "byteOffset": 9015960,
      "componentType": 5125,
      "count": 295848,
      "max": [
        65531
      ],
      "min": [
        0
      ],
      "type": "SCALAR"
    },
    {
      "bufferView": 2,
      "byteOffset": 12582144,
      "componentType": 5126,
      "count": 65532,
      "max": [
        25.980949401855469,
        34.364070892333984,
        5.5989999771118164
      ],
      "min": [
        -19.534330368041992,
        -23.719070434570312,
        -0.41806000471115112
      ],
      "type": "VEC3"
    },
    {
      "bufferView": 2,
      "byteOffset": 13368528,
      "componentType": 5126,
      "count": 65532,
      "max": [
        0.99935680627822876,
        0.99998325109481812,
        0.99999910593032837
      ],
      "min": [
        -0.99992084503173828,
        -0.99999815225601196,
        -0.99308621883392334
      ],
      "type": "VEC3"
    },
    {
      "bufferView": 1,
      "byteOffset": 4194048,
      "componentType": 5126,
      "count": 65532,
      "max": [
        0.98764002323150635,
        0.99661999940872192
      ],
      "min": [
        0.015549999661743641,
        0.14092999696731567
      ],
      "type": "VEC2"
    },
    {
      "bufferView": 0,
      "byteOffset": 10199352,
      "componentType": 5125,
      "count": 336072,
      "max": [
        65531
      ],
      "min": [
        0
      ],
      "type": "SCALAR"
    },
    {
      "bufferView": 2,
      "byteOffset": 14154912,
      "componentType": 5126,
      "count": 65532,
      "max": [
        26.011070251464844,
        47.346710205078125,
        3.1341700553894043
      ],
      "min": [
        -38.695140838623047,
        -23.739280700683594,
        -0.51045000553131104
      ],
      "type": "VEC3"
    },
    {
      "bufferView": 2,
      "byteOffset": 14941296,
      "componentType": 5126,
      "count": 65532,
      "max": [
        0.99663257598876953,
        0.99884212017059326,
        0.99999994039535522
      ],
      "min": [
        -0.99882286787033081,
        -0.97247129678726196,
        -0.78483814001083374
      ],
      "type": "VEC3"
    },
    {
      "bufferView": 1,
      "byteOffset": 4718304,
      "componentType": 5126,
      "count": 65532,
      "max": [
        0.99401998519897461,
        0.99873000383377075
      ],
      "min": [
        0.0047499998472630978,
        0.033500000834465027
      ],
      "type": "VEC2"
    },
    {
      "bufferView": 0,
      "byteOffset": 11543640,
      "componentType": 5125,
      "count": 316149,
      "max": [
        65531
      ],
      "min": [
        0
      ],
      "type": "SCALAR"
    },
    {
      "bufferView": 2,
      "byteOffset": 15727680,
      "componentType": 5126,
      "count": 65532,
      "max": [
        39.008468627929688,
        47.189010620117188,
        4.9219498634338379
      ],
      "min": [
        -29.247310638427734,
        -26.507219314575195,
        -0.89753997325897217
      ],
      "type": "VEC3"
    },
    {
      "bufferView": 2,
      "byteOffset": 16514064,
      "componentType": 5126,
      "count": 65532,
      "max": [
        0.99833130836486816,
        0.98626083135604858,
        0.99999994039535522
      ],
      "min": [
        -0.99707633256912231,
        -0.99863713979721069,
        -0.99552673101425171
      ],
      "type": "VEC3"
    },
    {
      "bufferView": 1,
      "byteOffset": 5242560,
      "componentType": 5126,
      "count": 65532,
      "max": [
        0.9836999773979187,
        0.99935001134872437
      ],
      "min": [
        0.0030700000934302807,
        0.0037799999117851257
      ],
      "type": "VEC2"
    },
    {
      "bufferView": 0,
      "byteOffset": 12808236,
      "componentType": 5125,
      "count": 291186,
      "max": [
        65531
      ],
      "min": [
        0
      ],
      "type": "SCALAR"
    },
    {
      "bufferView": 2,
      "byteOffset": 17300448,
      "componentType": 5126,
      "count": 65532,
      "max": [
        39.039890289306641,
        29.214120864868164,
        3.6461598873138428
      ],
      "min": [
        -29.324869155883789,
        -49.991779327392578,
        -1.8420900106430054
      ],
      "type": "VEC3"
    },
    {
      "bufferView": 2,
      "byteOffset": 18086832,
      "componentType": 5126,
      "count": 65532,
      "max": [
        0.99630600214004517,
        0.99863463640213013,
        0.99999994039535522
      ],
      "min": [
        -0.99667435884475708,
        -0.99977022409439087,
        -0.99982845783233643
      ],
      "type": "VEC3"
    },
    {
      "bufferView": 1,
      "byteOffset": 5766816,
      "componentType": 5126,
      "count": 65532,
      "max": [
        0.98965001106262207,
        0.99953997135162354
      ],
      "min": [
        0.0029800001066178083,
        0.010209999978542328
      ],
      "type": "VEC2"
    },
    {
      "bufferView": 0,
      "byteOffset": 13972980,
      "componentType": 5125,
      "count": 298287,
      "max": [
        65531
      ],
      "min": [
        0
      ],
      "type": "SCALAR"
    },
    {
      "bufferView": 2,
      "byteOffset": 18873216,
      "componentType": 5126,
      "count": 65532,
      "max": [
        26.5748291015625,
        26.677190780639648,
        8.5469503402709961
      ],
      "min": [
        -18.137710571289062,
        -26.549169540405273,
        -0.8452799916267395
      ],
      "type": "VEC3"
    },
    {
      "bufferView": 2,
      "byteOffset": 19659600,
      "componentType": 5126,
      "count": 65532,
      "max": [
        0.99848997592926025,
        0.99782854318618774,
        0.99999934434890747
      ],
      "min": [
        -0.99964058399200439,
        -0.99988859891891479,
        -0.99927347898483276
      ],
      "type": "VEC3"
    },
    {
      "bufferView": 1,
      "byteOffset": 6291072,
      "componentType": 5126,
      "count": 65532,
      "max": [
        0.99159997701644897,
        0.99953997135162354
      ],
      "min": [
        0.0045699998736381531,
        0.035620000213384628
      ],
      "type": "VEC2"
    },
    {
      "bufferView": 0,
      "byteOffset": 15166128,
      "componentType": 5125,
      "count": 319503,
      "max": [
        65531
      ],
      "min": [
        0
      ],
      "type": "SCALAR"
    },
    {
      "bufferView": 2,
      "byteOffset": 20445984,
      "componentType": 5126,
      "count": 65532,
      "max": [
        26.464689254760742,
        29.303810119628906,
        6.9322099685668945
      ],
      "min": [
        -31.217720031738281,
        -23.745830535888672,
        -0.92216002941131592
      ],
      "type": "VEC3"
    },
    {
      "bufferView": 2,
      "byteOffset": 21232368,
      "componentType": 5126,
      "count": 65532,
      "max": [
        0.99992799758911133,
        0.99968206882476807,
        0.99999994039535522
      ],
      "min": [
        -0.99960488080978394,
        -0.99987024068832397,
        -0.99179410934448242
      ],
      "type": "VEC3"
    },
    {
      "bufferView": 1,
      "byteOffset": 6815328,
      "componentType": 5126,
      "count": 65532,
      "max": [
        0.98197001218795776,
        0.99967002868652344
      ],
      "min": [
        0.00033000000985339284,
        0.0060800001956522465
      ],
      "type": "VEC2"
    },
    {
      "bufferView": 0,
      "byteOffset": 16444140,
      "componentType": 5125,
      "count": 311229,
      "max": [
        65531
      ],
      "min": [
        0
      ],
      "type": "SCALAR"
    },
    {
      "bufferView": 2,
      "byteOffset": 22018752,
      "componentType": 5126,
      "count": 52641,
      "max": [
        -1.1644400358200073,
        4.2512497901916504,
        0.60561001300811768
      ],
      "min": [
        -57.473838806152344,
        -26.544639587402344,
        -1.1280100345611572
      ],
      "type": "VEC3"
    },
    {
      "bufferView": 2,
      "byteOffset": 22650444,
      "componentType": 5126,
      "count": 52641,
      "max": [
        0.9994235634803772,
        0.99936503171920776,
        1
      ],
      "min": [
        -0.99882608652114868,
        -0.99993050098419189,
        -0.99976879358291626
      ],
      "type": "VEC3"
    },
    {
      "bufferView": 1,
      "byteOffset": 7339584,
      "componentType": 5126,
      "count": 52641,
      "max": [
        0.98805999755859375,
        0.99976998567581177
      ],
      "min": [
        0.0020800000056624413,
        0.0039599998854100704
      ],
      "type": "VEC2"
    },
    {
      "bufferView": 0,
      "byteOffset": 17689056,
      "componentType": 5125,
      "count": 234252,
      "max": [
        52640
      ],
      "min": [
        0
      ],
      "type": "SCALAR"
    },
    {
      "bufferView": 2,
      "byteOffset": 23282136,
      "componentType": 5126,
      "count": 1019,
      "max": [
        25.307180404663086,
        14.754819869995117,
        4.9574098587036133
      ],
      "min": [
        -22.134960174560547,
        3.1334500312805176,
        0.6350100040435791
      ],
      "type": "VEC3"
    },
    {
      "bufferView": 2,
      "byteOffset": 23294364,
      "componentType": 5126,
      "count": 1019,
      "max": [
        0.98766946792602539,
        0.99882274866104126,
        0.98849695920944214
      ],
      "min": [
        -0.99859392642974854,
        -0.88908833265304565,
        -0.90241461992263794
      ],
      "type": "VEC3"
    },
    {
      "bufferView": 1,
      "byteOffset": 7760712,
      "componentType": 5126,
      "count": 1019,
      "max": [
        0.040070001035928726,
        1
      ],
      "min": [
        0,
        0.95771998167037964
      ],
      "type": "VEC2"
    },
    {
      "bufferView": 0,
      "byteOffset": 18626064,
      "componentType": 5125,
      "count": 5385,
      "max": [
        1018
      ],
      "min": [
        0
      ],
      "type": "SCALAR"
    },
    {
      "bufferView": 2,
      "byteOffset": 23306592,
      "componentType": 5126,
      "count": 29986,
      "max": [
        49.467288970947266,
        47.346710205078125,
        5.8660898208618164
      ],
      "min": [
        -57.854888916015625,
        -49.991779327392578,
        -4.8420901298522949
      ],
      "type": "VEC3"
    },
    {
      "bufferView": 2,
      "byteOffset": 23666424,
      "componentType": 5126,
      "count": 29986,
      "max": [
        0.99997049570083618,
        0.99992024898529053,
        0.99935418367385864
      ],
      "min": [
        -0.99992668628692627,
        -0.99999028444290161,
        -1
      ],
      "type": "VEC3"
    },
    {
      "bufferView": 1,
      "byteOffset": 7768864,
      "componentType": 5126,
      "count": 29986,
      "max": [
        1,
        1
      ],
      "min": [
        0,
        0
      ],
      "type": "VEC2"
    },
    {
      "bufferView": 0,
      "byteOffset": 18647604,
      "componentType": 5125,
      "count": 54453,
      "max": [
        29985
      ],
      "min": [
        0
      ],
      "type": "SCALAR"
    },
    {
      "bufferView": 2,
      "byteOffset": 24026256,
      "componentType": 5126,
      "count": 65532,
      "max": [
        -3.6627099514007568,
        7.546259880065918,
        0.60076999664306641
      ],
      "min": [
        -27.852170944213867,
        -16.41050910949707,
        -1.0681899785995483
      ],
      "type": "VEC3"
    },
    {
      "bufferView": 2,
      "byteOffset": 24812640,
      "componentType": 5126,
      "count": 65532,
      "max": [
        0.9999808669090271,
        0.99989527463912964,
        0.99999994039535522
      ],
      "min": [
        -0.99952143430709839,
        -0.9996030330657959,
        -0.99903249740600586
      ],
      "type": "VEC3"
    },
    {
      "bufferView": 1,
      "byteOffset": 8008752,
      "componentType": 5126,
      "count": 65532,
      "max": [
        0.99831002950668335,
        0.99948000907897949
      ],
      "min": [
        0.0065600001253187656,
        0.0029500001110136509
      ],
      "type": "VEC2"
    },
    {
      "bufferView": 0,
      "byteOffset": 18865416,
      "componentType": 5125,
      "count": 248880,
      "max": [
        65531
      ],
      "min": [
        0
      ],
      "type": "SCALAR"
    },
    {
      "bufferView": 2,
      "byteOffset": 25599024,
      "componentType": 5126,
      "count": 65532,
      "max": [
        -6.6692099571228027,
        4.164790153503418,
        0.4945099949836731
      ],
      "min": [
        -31.987319946289062,
        -9.7948999404907227,
        -1.4876099824905396
      ],
      "type": "VEC3"
    },
    {
      "bufferView": 2,
      "byteOffset": 26385408,
      "componentType": 5126,
      "count": 65532,
      "max": [
        0.99999767541885376,
        0.99986618757247925,
        0.99999994039535522
      ],
      "min": [
        -0.99986010789871216,
        -0.99996227025985718,
        -0.99922192096710205
      ],
      "type": "VEC3"
    },
    {
      "bufferView": 1,
      "byteOffset": 8533008,
      "componentType": 5126,
      "count": 65532,
      "max": [
        0.99734002351760864,
        0.99953001737594604
      ],
      "min": [
        0.0033400000538676977,
        0.0030400000978261232
      ],
      "type": "VEC2"
    },
    {
      "bufferView": 0,
      "byteOffset": 19860936,
      "componentType": 5125,
      "count": 254862,
      "max": [
        65531
      ],
      "min": [
        0
      ],
      "type": "SCALAR"
    },
    {
      "bufferView": 2,
      "byteOffset": 27171792,
      "componentType": 5126,
      "count": 15054,
      "max": [
        -17.984979629516602,
        4.1442599296569824,
        0.66284000873565674
      ],
      "min": [
        -31.974279403686523,
        -6.4466700553894043,
        -1.5422400236129761
      ],
      "type": "VEC3"
    },
    {
      "bufferView": 2,
      "byteOffset": 27352440,
      "componentType": 5126,
      "count": 15054,
      "max": [
        0.99936443567276001,
        0.99970346689224243,
        0.99999791383743286
      ],
      "min": [
        -0.99898624420166016,
        -0.99998384714126587,
        -0.93420028686523438
      ],
      "type": "VEC3"
    },
    {
      "bufferView": 1,
      "byteOffset": 9057264,
      "componentType": 5126,
      "count": 15054,
      "max": [
        0.99686998128890991,
        0.99884998798370361
      ],
      "min": [
        0.0084699997678399086,
        0.0038399999029934406
      ],
      "type": "VEC2"
    },
    {
      "bufferView": 0,
      "byteOffset": 20880384,
      "componentType": 5125,
      "count": 54693,
      "max": [
        15053
      ],
      "min": [
        0
      ],
      "type": "SCALAR"
    },
    {
      "bufferView": 2,
      "byteOffset": 27533088,
      "componentType": 5126,
      "count": 65532,
      "max": [
        -3.372499942779541,
        7.9135198593139648,
        0.58639997243881226
      ],
      "min": [
        -32.272190093994141,
        -15.984399795532227,
        -1.5657199621200562
      ],
      "type": "VEC3"
    },
    {
      "bufferView": 2,
      "byteOffset": 28319472,
      "componentType": 5126,
      "count": 65532,
      "max": [
        0.99950778484344482,
        0.99802440404891968,
        0.99999982118606567
      ],
      "min": [
        -0.99986010789871216,
        -0.99931514263153076,
        -0.99840295314788818
      ],
      "type": "VEC3"
    },
    {
      "bufferView": 1,
      "byteOffset": 9177696,
      "componentType": 5126,
      "count": 65532,
      "max": [
        0.99914997816085815,
        0.99931001663208008
      ],
      "min": [
        0.0038999998942017555,
        0.0038999998942017555
      ],
      "type": "VEC2"
    },
    {
      "bufferView": 0,
      "byteOffset": 21099156,
      "componentType": 5125,
      "count": 300744,
      "max": [
        65531
      ],
      "min": [
        0
      ],
      "type": "SCALAR"
    },
    {
      "bufferView": 2,
      "byteOffset": 29105856,
      "componentType": 5126,
      "count": 40090,
      "max": [
        -8.9129695892333984,
        4.1732897758483887,
        0.61166000366210938
      ],
      "min": [
        -32.012821197509766,
        -9.817540168762207,
        -1.5623300075531006
      ],
      "type": "VEC3"
    },
    {
      "bufferView": 2,
      "byteOffset": 29586936,
      "componentType": 5126,
      "count": 40090,
      "max": [
        0.99950778484344482,
        0.99986618757247925,
        0.99999994039535522
      ],
      "min": [
        -0.99826347827911377,
        -0.99998384714126587,
        -0.97888475656509399
      ],
      "type": "VEC3"
    },
    {
      "bufferView": 1,
      "byteOffset": 9701952,
      "componentType": 5126,
      "count": 40090,
      "max": [
        0.9954800009727478,
        0.99928998947143555
      ],
      "min": [
        0.0027300000656396151,
        0.0036899999249726534
      ],
      "type": "VEC2"
    },
    {
      "bufferView": 0,
      "byteOffset": 22302132,
      "componentType": 5125,
      "count": 168201,
      "max": [
        40089
      ],
      "min": [
        0
      ],
      "type": "SCALAR"
    },
    {
      "bufferView": 2,
      "byteOffset": 30068016,
      "componentType": 5126,
      "count": 48,
      "max": [
        1,
        1,
        1
      ],
      "min": [
        -1,
        -1,
        -1
      ],
      "type": "VEC3"
    },
    {
      "bufferView": 2,
      "byteOffset": 30068592,
      "componentType": 5126,
      "count": 48,
      "max": [
        1,
        1,
        1
      ],
      "min": [
        -1,
        -1,
        -1
      ],
      "type": "VEC3"
    },
    {
      "bufferView": 1,
      "byteOffset": 10022672,
      "componentType": 5126,
      "count": 48,
      "max": [
        1,
        1
      ],
      "min": [
        0,
        0
      ],
      "type": "VEC2"
    },
    {
      "bufferView": 0,
      "byteOffset": 22974936,
      "componentType": 5125,
      "count": 72,
      "max": [
        47
      ],
      "min": [
        0
      ],
      "type": "SCALAR"
    }
  ],
  "asset": {
    "extras": {
      "author": "AD&D  4D (https://sketchfab.com/add4d)",
      "license": "CC0-1.0 (http://creativecommons.org/publicdomain/zero/1.0/)",
      "source": "https://sketchfab.com/3d-models/pujolet-de-santa-l-alcora-castellon-spain-eb185db5e9974751a558f0ae9c6125b3",
      "title": "Pujolet De Santa / L´Alcora / Castellón / Spain"
    },
    "generator": "Sketchfab-7.80.0",
    "version": "2.0"
  },
  "bufferViews": [
    {
      "buffer": 0,
      "byteLength": 22975224,
      "byteOffset": 0,
      "name": "floatBufferViews",
      "target": 34963
    },
    {
      "buffer": 0,
      "byteLength": 10023056,
      "byteOffset": 22975224,
      "byteStride": 8,
      "name": "floatBufferViews",
      "target": 34962
    },
    {
      "buffer": 0,
      "byteLength": 30069168,
      "byteOffset": 32998280,
      "byteStride": 12,
      "name": "floatBufferViews",
      "target": 34962
    }
  ],
  "buffers": [
    {
      "byteLength": 63067448,
      "uri": "scene.bin"
    }
  ],
  "extensionsUsed": [
    "KHR_materials_unlit"
  ],
  "images": [
    {
      "uri": "textures/Material_baseColor.jpeg"
    },
    {
      "uri": "textures/Material_0_baseColor.png"
    },
    {
      "uri": "textures/Material_4_baseColor.png"
    },
    {
      "uri": "textures/Material_3_baseColor.png"
    },
    {
      "uri": "textures/Material_2_baseColor.png"
    }
  ],
  "materials": [
    {
      "alphaMode": "BLEND",
      "doubleSided": false,
      "emissiveFactor": [
        0,
        0,
        0
      ],
      "extensions": {
        "KHR_materials_unlit": {}
      },
      "name": "Material",
      "pbrMetallicRoughness": {
        "baseColorFactor": [
          0.35537347559999999,
          0.35537347559999999,
          0.35537347559999999,
          0.57488567069999996
        ],
        "baseColorTexture": {
          "index": 0,
          "texCoord": 0
        },
        "metallicFactor": 0,
        "roughnessFactor": 1
      }
    },
    {
      "doubleSided": true,
      "emissiveFactor": [
        0,
        0,
        0
      ],
      "extensions": {
        "KHR_materials_unlit": {}
      },
      "name": "Material_0",
      "pbrMetallicRoughness": {
        "baseColorFactor": [
          1,
          1,
          1,
          1
        ],
        "baseColorTexture": {
          "index": 1,
          "texCoord": 0
        },
        "metallicFactor": 0,
        "roughnessFactor": 1
      }
    },
    {
      "doubleSided": true,
      "emissiveFactor": [
        0,
        0,
        0
      ],
      "extensions": {
        "KHR_materials_unlit": {}
      },
      "name": "Material_4",
      "pbrMetallicRoughness": {
        "baseColorFactor": [
          1,
          1,
          1,
          1
        ],
        "baseColorTexture": {
          "index": 2,
          "texCoord": 0
        },
        "metallicFactor": 0,
        "roughnessFactor": 1
      }
    },
    {
      "doubleSided": true,
      "emissiveFactor": [
        0,
        0,
        0
      ],
      "extensions": {
        "KHR_materials_unlit": {}
      },
      "name": "Material_1",
      "pbrMetallicRoughness": {
        "baseColorFactor": [
          0.0035475558267317876,
          0.0099799311167001036,
          0.0044142686496546997,
          1
        ],
        "metallicFactor": 0,
        "roughnessFactor": 1
      }
    },
    {
      "doubleSided": true,
      "emissiveFactor": [
        0,
        0,
        0
      ],
      "extensions": {
        "KHR_materials_unlit": {}
      },
      "name": "Material_3",
      "pbrMetallicRoughness": {
        "baseColorFactor": [
          1,
          1,
          1,
          1
        ],
        "baseColorTexture": {
          "index": 3,
          "texCoord": 0
        },
        "metallicFactor": 0,
        "roughnessFactor": 1
      }
    },
    {
      "doubleSided": true,
      "emissiveFactor": [
        0,
        0,
        0
      ],
      "extensions": {
        "KHR_materials_unlit": {}
      },
      "name": "Material_2",
      "pbrMetallicRoughness": {
        "baseColorFactor": [
          1,
          1,
          1,
          1
        ],
        "baseColorTexture": {
          "index": 4,
          "texCoord": 0
        },
        "metallicFactor": 0,
        "roughnessFactor": 1
      }
    }
  ],
  "meshes": [
    {
      "name": "PujoletDeSanta-1M_0",
      "primitives": [
        {
          "attributes": {
            "NORMAL": 1,
            "POSITION": 0,
            "TEXCOORD_0": 2
          },
          "indices": 3,
          "material": 1,
          "mode": 4
        }
      ]
    },
    {
      "name": "PujoletDeSanta-1M_0",
      "primitives": [
        {
          "attributes": {
            "NORMAL": 5,
            "POSITION": 4,
            "TEXCOORD_0": 6
          },
          "indices": 7,
          "material": 1,
          "mode": 4
        }
      ]
    },
    {
      "name": "PujoletDeSanta-1M_0",
      "primitives": [
        {
          "attributes": {
            "NORMAL": 9,
            "POSITION": 8,
            "TEXCOORD_0": 10
          },
          "indices": 11,
          "material": 1,
          "mode": 4
        }
      ]
    },
    {
      "name": "PujoletDeSanta-1M_0",
      "primitives": [
        {
          "attributes": {
            "NORMAL": 13,
            "POSITION": 12,
            "TEXCOORD_0": 14
          },
          "indices": 15,
          "material": 1,
          "mode": 4
        }
      ]
    },
    {
      "name": "PujoletDeSanta-1M_0",
      "primitives": [
        {
          "attributes": {
            "NORMAL": 17,
            "POSITION": 16,
            "TEXCOORD_0": 18
          },
          "indices": 19,
          "material": 1,
          "mode": 4
        }
      ]
    },
    {
      "name": "PujoletDeSanta-1M_0",
      "primitives": [
        {
          "attributes": {
            "NORMAL": 21,
            "POSITION": 20,
            "TEXCOORD_0": 22
          },
          "indices": 23,
          "material": 1,
          "mode": 4
        }
      ]
    },
    {
      "name": "PujoletDeSanta-1M_0",
      "primitives": [
        {
          "attributes": {
            "NORMAL": 25,
            "POSITION": 24,
            "TEXCOORD_0": 26
          },
          "indices": 27,
          "material": 1,
          "mode": 4
        }
      ]
    },
    {
      "name": "PujoletDeSanta-1M_0",
      "primitives": [
        {
          "attributes": {
            "NORMAL": 29,
            "POSITION": 28,
            "TEXCOORD_0": 30
          },
          "indices": 31,
          "material": 1,
          "mode": 4
        }
      ]
    },
    {
      "name": "PujoletDeSanta-1M_0",
      "primitives": [
        {
          "attributes": {
            "NORMAL": 33,
            "POSITION": 32,
            "TEXCOORD_0": 34
          },
          "indices": 35,
          "material": 1,
          "mode": 4
        }
      ]
    },
    {
      "name": "PujoletDeSanta-1M_0",
      "primitives": [
        {
          "attributes": {
            "NORMAL": 37,
            "POSITION": 36,
            "TEXCOORD_0": 38
          },
          "indices": 39,
          "material": 1,
          "mode": 4
        }
      ]
    },
    {
      "name": "PujoletDeSanta-1M_0",
      "primitives": [
        {
          "attributes": {
            "NORMAL": 41,
            "POSITION": 40,
            "TEXCOORD_0": 42
          },
          "indices": 43,
          "material": 1,
          "mode": 4
        }
      ]
    },
    {
      "name": "PujoletDeSanta-1M_0",
      "primitives": [
        {
          "attributes": {
            "NORMAL": 45,
            "POSITION": 44,
            "TEXCOORD_0": 46
          },
          "indices": 47,
          "material": 1,
          "mode": 4
        }
      ]
    },
    {
      "name": "PujoletDeSanta-1M_0",
      "primitives": [
        {
          "attributes": {
            "NORMAL": 49,
            "POSITION": 48,
            "TEXCOORD_0": 50
          },
          "indices": 51,
          "material": 1,
          "mode": 4
        }
      ]
    },
    {
      "name": "PujoletDeSanta-1M_0",
      "primitives": [
        {
          "attributes": {
            "NORMAL": 53,
            "POSITION": 52,
            "TEXCOORD_0": 54
          },
          "indices": 55,
          "material": 1,
          "mode": 4
        }
      ]
    },
    {
      "name": "PujoletDeSanta-1M_0",
      "primitives": [
        {
          "attributes": {
            "NORMAL": 57,
            "POSITION": 56,
            "TEXCOORD_0": 58
          },
          "indices": 59,
          "material": 1,
          "mode": 4
        }
      ]
    },
    {
      "name": "PujoletDeSanta-1M_1",
      "primitives": [
        {
          "attributes": {
            "NORMAL": 61,
            "POSITION": 60,
            "TEXCOORD_0": 62
          },
          "indices": 63,
          "material": 2,
          "mode": 4
        }
      ]
    },
    {
      "name": "PujoletDeSanta-1M_2",
      "primitives": [
        {
          "attributes": {
            "NORMAL": 65,
            "POSITION": 64,
            "TEXCOORD_0": 66
          },
          "indices": 67,
          "material": 3,
          "mode": 4
        }
      ]
    },
    {
      "name": "PujoletDeSanta-1M_3",
      "primitives": [
        {
          "attributes": {
            "NORMAL": 69,
            "POSITION": 68,
            "TEXCOORD_0": 70
          },
          "indices": 71,
          "material": 4,
          "mode": 4
        }
      ]
    },
    {
      "name": "PujoletDeSanta-1M_3",
      "primitives": [
        {
          "attributes": {
            "NORMAL": 73,
            "POSITION": 72,
            "TEXCOORD_0": 74
          },
          "indices": 75,
          "material": 4,
          "mode": 4
        }
      ]
    },
    {
      "name": "PujoletDeSanta-1M_3",
      "primitives": [
        {
          "attributes": {
            "NORMAL": 77,
            "POSITION": 76,
            "TEXCOORD_0": 78
          },
          "indices": 79,
          "material": 4,
          "mode": 4
        }
      ]
    },
    {
      "name": "PujoletDeSanta-1M_4",
      "primitives": [
        {
          "attributes": {
            "NORMAL": 81,
            "POSITION": 80,
            "TEXCOORD_0": 82
          },
          "indices": 83,
          "material": 5,
          "mode": 4
        }
      ]
    },
    {
      "name": "PujoletDeSanta-1M_4",
      "primitives": [
        {
          "attributes": {
            "NORMAL": 85,
            "POSITION": 84,
            "TEXCOORD_0": 86
          },
          "indices": 87,
          "material": 5,
          "mode": 4
        }
      ]
    },
    {
      "name": "Cube_0",
      "primitives": [
        {
          "attributes": {
            "NORMAL": 89,
            "POSITION": 88,
            "TEXCOORD_0": 90
          },
          "indices": 91,
          "material": 0,
          "mode": 4
        }
      ]
    }
  ],
  "nodes": [
    {
      "children": [
        1
      ],
      "name": "RootNode (gltf orientation matrix)",
      "rotation": [
        -0.70710678118654746,
        -0,
        -0,
        0.70710678118654757
      ]
    },
    {
      "children": [
        2
      ],
      "name": "RootNode (model correction matrix)"
    },
    {
      "children": [
        3,
        5,
        28
      ],
      "name": "Root"
    },
    {
      "children": [
        4
      ],
      "matrix": [
        -0.29086000000000006,
        0.95517000000000007,
        -0.05519000000000001,
        0,
        -0.77110000000000001,
        -0.19988000000000003,
        0.60452000000000006,
        0,
        0.56639000000000006,
        0.21839000000000003,
        0.7946700000000001,
        0,
        4.0762500000000008,
        1.00545,
        5.9038600000000008,
        1
      ],
      "name": "Lamp"
    },
    {
      "name": "Lamp"
    },
    {
      "children": [
        6,
        7,
        8,
        9,
        10,
        11,
        12,
        13,
        14,
        15,
        16,
        17,
        18,
        19,
        20,
        21,
        22,
        23,
        24,
        25,
        26,
        27
      ],
      "matrix": [
        1,
        0,
        0,
        0,
        0,
        0.99982000000000004,
        -0.018890000000000001,
        0,
        0,
        0.018890000000000001,
        0.99982000000000004,
        0,
        13.919640000000001,
        0.63828000000000007,
        -0.80085000000000006,
        1
      ],
      "name": "PujoletDeSanta-1M"
    },
    {
      "mesh": 0,
      "name": "PujoletDeSanta-1M_0"
    },
    {
      "mesh": 1,
      "name": "PujoletDeSanta-1M_0"
    },
    {
      "mesh": 2,
      "name": "PujoletDeSanta-1M_0"
    },
    {
      "mesh": 3,
      "name": "PujoletDeSanta-1M_0"
    },
    {
      "mesh": 4,
      "name": "PujoletDeSanta-1M_0"
    },
    {
      "mesh": 5,
      "name": "PujoletDeSanta-1M_0"
    },
    {
      "mesh": 6,
      "name": "PujoletDeSanta-1M_0"
    },
    {
      "mesh": 7,
      "name": "PujoletDeSanta-1M_0"
    },
    {
      "mesh": 8,
      "name": "PujoletDeSanta-1M_0"
    },
    {
      "mesh": 9,
      "name": "PujoletDeSanta-1M_0"
    },
    {
      "mesh": 10,
      "name": "PujoletDeSanta-1M_0"
    },
    {
      "mesh": 11,
      "name": "PujoletDeSanta-1M_0"
    },
    {
      "mesh": 12,
      "name": "PujoletDeSanta-1M_0"
    },
    {
      "mesh": 13,
      "name": "PujoletDeSanta-1M_0"
    },
    {
      "mesh": 14,
      "name": "PujoletDeSanta-1M_0"
    },
    {
      "mesh": 15,
      "name": "PujoletDeSanta-1M_1"
    },
    {
      "mesh": 16,
      "name": "PujoletDeSanta-1M_2"
    },
    {
      "mesh": 17,
      "name": "PujoletDeSanta-1M_3"
    },
    {
      "mesh": 18,
      "name": "PujoletDeSanta-1M_3"
    },
    {
      "mesh": 19,
      "name": "PujoletDeSanta-1M_3"
    },
    {
      "mesh": 20,
      "name": "PujoletDeSanta-1M_4"
    },
    {
      "mesh": 21,
      "name": "PujoletDeSanta-1M_4"
    },
    {
      "children": [
        29
      ],
      "matrix": [
        -12.528159999999998,
        8.2444999999999986,
        -0.27122000000000002,
        0,
        -0.27489000000000002,
        -0.41765000000000002,
        0.0018200000000000004,
        0,
        -0.006550000000000002,
        0.0064900000000000018,
        0.49991000000000008,
        0,
        23.459139999999998,
        24.619790000000002,
        -2.5133800000000002,
        1
      ],
      "name": "Cube"
    },
    {
      "mesh": 22,
      "name": "Cube_0"
    }
  ],
  "samplers": [
    {
      "magFilter": 9729,
      "minFilter": 9987,
      "wrapS": 10497,
      "wrapT": 10497
    }
  ],
  "scene": 0,
  "scenes": [
    {
      "name": "OSG_Scene",
      "nodes": [
        0
      ]
    }
  ],
  "textures": [
    {
      "sampler": 0,
      "source": 0
    },
    {
      "sampler": 0,
      "source": 1
    },
    {
      "sampler": 0,
      "source": 2
    },
    {
      "sampler": 0,
      "source": 3
    },
    {
      "sampler": 0,
      "source": 4
    }
  ]
}

