# Blender v2.91.0 OBJ File: ''
# www.blender.org
mtllib Cuchillo_piedra_centro_geometria_recortado.mtl
o Lether_belt_Plane.003
v -0.005629 0.008026 0.092031
v 0.001077 0.008802 0.092043
v 0.001013 0.008641 0.086794
v -0.005629 0.007942 0.086685
v -0.011058 0.006368 0.086576
v -0.011058 0.006389 0.092019
v -0.010933 0.006331 0.092663
v -0.005555 0.007959 0.092666
v 0.001092 0.008733 0.092669
v 0.020705 0.004577 0.092031
v 0.022652 0.000105 0.092043
v 0.021964 0.000105 0.086794
v 0.020078 0.004437 0.086685
v 0.015288 0.007702 0.086576
v 0.015761 0.007932 0.092019
v 0.015674 0.007879 0.092663
v 0.020585 0.004547 0.092666
v 0.022519 0.000105 0.092669
v -0.005629 -0.007817 0.092031
v -0.011058 -0.006179 0.092019
v -0.011058 -0.006158 0.086576
v -0.005629 -0.007733 0.086685
v 0.001013 -0.008431 0.086794
v 0.001077 -0.008592 0.092043
v 0.001092 -0.008524 0.092669
v -0.005555 -0.007749 0.092666
v -0.010933 -0.006121 0.092663
v 0.020705 -0.004367 0.092031
v 0.015761 -0.007722 0.092019
v 0.015288 -0.007492 0.086576
v 0.020078 -0.004228 0.086685
v 0.020585 -0.004337 0.092666
v 0.015674 -0.007669 0.092663
v 0.008712 -0.008846 0.092031
v 0.008459 -0.008622 0.086685
v 0.008672 -0.008781 0.092666
v -0.014866 0.003548 0.092031
v -0.014866 0.003548 0.086685
v -0.016364 0.000105 0.086794
v -0.016364 0.000105 0.092043
v -0.016189 0.000105 0.092669
v -0.014705 0.003515 0.092666
v 0.008712 0.009055 0.092031
v 0.008459 0.008832 0.086685
v 0.008672 0.008991 0.092666
v -0.014866 -0.003338 0.092031
v -0.014866 -0.003338 0.086685
v -0.014705 -0.003305 0.092666
v -0.011404 -0.006043 0.051654
v -0.015096 -0.003338 0.052385
v -0.016479 0.000105 0.053116
v 0.000662 0.007760 0.053116
v 0.007300 0.007609 0.052385
v 0.013041 0.006443 0.051654
v -0.015096 0.003548 0.052385
v -0.011404 0.006253 0.051654
v 0.013041 -0.006233 0.051654
v 0.007300 -0.007399 0.052385
v 0.000662 -0.007550 0.053116
v 0.018312 0.000105 0.053116
v 0.016873 -0.003464 0.052385
v -0.005862 -0.007272 0.052385
v 0.016873 0.003674 0.052385
v -0.005862 0.007482 0.052385
v -0.014866 -0.003338 0.071962
v -0.016364 0.000105 0.072338
v -0.011059 -0.006100 0.071585
v 0.007761 0.008217 0.071962
v 0.013985 0.007069 0.071585
v 0.000836 0.008198 0.072338
v -0.014866 0.003548 0.071962
v -0.011059 0.006310 0.071585
v 0.007761 -0.008007 0.071962
v 0.000836 -0.007988 0.072338
v 0.013985 -0.006859 0.071585
v 0.018351 -0.003844 0.071962
v 0.020070 0.000105 0.072338
v -0.005631 -0.007501 0.071962
v 0.018351 0.004054 0.071962
v -0.005631 0.007711 0.071962
v 0.007197 -0.006791 0.094024
v 0.001314 -0.006590 0.094024
v 0.001189 -0.007691 0.093733
v 0.008039 -0.007925 0.093733
v 0.014368 -0.006921 0.093733
v 0.012631 -0.005929 0.094024
v 0.010231 -0.004409 0.094134
v 0.005424 -0.004367 0.094172
v 0.001608 -0.005171 0.094134
v -0.003842 0.006197 0.094024
v 0.001314 0.006800 0.094024
v 0.001189 0.007901 0.093733
v -0.004815 0.007199 0.093733
v -0.009672 0.005728 0.093733
v -0.008012 0.004933 0.094024
v -0.005749 0.003798 0.094134
v -0.001735 0.004056 0.094172
v 0.001608 0.005381 0.094134
v -0.010937 0.002749 0.094024
v -0.013078 0.003184 0.093733
v -0.014418 0.000105 0.093733
v -0.012088 0.000105 0.094024
v -0.008817 0.000105 0.094134
v -0.006336 0.001820 0.094172
v 0.016443 0.003553 0.094024
v 0.017944 0.000105 0.094024
v 0.020555 0.000105 0.093733
v 0.018808 0.004120 0.093733
v 0.014368 0.007131 0.093733
v 0.012631 0.006138 0.094024
v 0.010231 0.004619 0.094134
v 0.011421 0.002341 0.094172
v 0.014230 0.000105 0.094134
v -0.003842 -0.005987 0.094024
v -0.008012 -0.004723 0.094024
v -0.009672 -0.005518 0.093733
v -0.004815 -0.006990 0.093733
v -0.001735 -0.003846 0.094172
v -0.005749 -0.003589 0.094134
v -0.010937 -0.002539 0.094024
v -0.013078 -0.002974 0.093733
v -0.006336 -0.001610 0.094172
v 0.007197 0.007000 0.094024
v 0.008039 0.008135 0.093733
v 0.005424 0.004577 0.094172
v 0.016443 -0.003343 0.094024
v 0.018808 -0.003910 0.093733
v 0.011421 -0.002131 0.094172
v 0.002187 0.000105 0.094222
v 0.020070 -0.004213 0.093257
v 0.015296 -0.007452 0.093257
v 0.021950 0.000105 0.093257
v 0.008490 0.008741 0.093257
v 0.015296 0.007662 0.093257
v 0.001122 0.008490 0.093257
v -0.014221 -0.003207 0.093257
v -0.015663 0.000105 0.093257
v -0.010558 -0.005942 0.093257
v -0.005335 -0.007525 0.093257
v 0.001122 -0.008280 0.093257
v 0.020070 0.004423 0.093257
v -0.014221 0.003417 0.093257
v -0.010558 0.006152 0.093257
v -0.005335 0.007735 0.093257
v 0.008490 -0.008531 0.093257
v -0.005998 0.007467 0.048463
v -0.002824 0.007581 0.048554
v 0.000650 0.007730 0.049134
v -0.007665 -0.006891 0.047363
v -0.006027 -0.007254 0.047624
v 0.000649 -0.007517 0.048724
v 0.007359 -0.007373 0.049839
v 0.007349 0.007587 0.050240
v 0.013066 -0.006224 0.050816
v 0.013056 0.006438 0.051155
v 0.018294 0.000105 0.051853
v 0.016878 -0.003458 0.051522
v 0.016877 0.003670 0.051714
v -0.015250 0.003548 0.047933
v -0.015268 -0.003338 0.047426
v -0.016576 0.000105 0.047645
v -0.011579 0.006250 0.048228
v -0.011625 -0.006039 0.047322
vt 0.020996 0.083662
vt 0.020996 -0.008399
vt 0.076240 -0.008399
vt 0.077089 0.083557
vt 0.077369 0.163375
vt 0.020996 0.163526
vt 0.000000 0.163540
vt 0.000000 0.083673
vt 0.000000 -0.008399
vt 0.020996 0.785813
vt 0.020996 0.731122
vt 0.076489 0.726769
vt 0.077701 0.780148
vt 0.078850 0.839779
vt 0.020996 0.845594
vt 0.000000 0.846321
vt 0.000000 0.786506
vt 0.000000 0.731636
vt 0.020996 0.408597
vt 0.020996 0.352968
vt 0.077662 0.353358
vt 0.076923 0.409357
vt 0.076171 0.473146
vt 0.020996 0.472453
vt 0.000000 0.472331
vt 0.000000 0.408451
vt 0.000000 0.352861
vt 0.020996 0.676033
vt 0.020996 0.615516
vt 0.077862 0.613609
vt 0.077115 0.672872
vt 0.000000 0.676396
vt 0.000000 0.615725
vt 0.020996 0.544541
vt 0.077016 0.544132
vt 0.000000 0.544563
vt 0.020996 0.218994
vt 0.076508 0.218917
vt 0.075860 0.262325
vt 0.020996 0.262272
vt 0.000000 0.262245
vt 0.000000 0.218995
vt 0.020996 0.915953
vt 0.078036 0.912434
vt 0.076240 0.991601
vt 0.020996 0.991601
vt 0.000000 0.991601
vt 0.000000 0.916396
vt 0.020996 0.305562
vt 0.076776 0.305743
vt 0.000000 0.305497
vt 0.202124 0.306158
vt 0.198461 0.262432
vt 0.358984 0.260116
vt 0.366170 0.303026
vt 0.373136 0.351233
vt 0.205667 0.354313
vt 0.207164 0.902765
vt 0.210420 0.823790
vt 0.381333 0.804582
vt 0.374292 0.891077
vt 0.359607 0.991601
vt 0.199981 0.991601
vt 0.201053 0.218685
vt 0.204495 0.162950
vt 0.370586 0.161786
vt 0.364103 0.216985
vt 0.203082 0.542949
vt 0.199703 0.474984
vt 0.361537 0.475320
vt 0.368384 0.541662
vt 0.375221 0.603533
vt 0.206467 0.608305
vt 0.203477 0.664113
vt 0.369376 0.655185
vt 0.364210 0.701196
vt 0.200976 0.714736
vt 0.202712 0.411347
vt 0.367357 0.410254
vt 0.205824 0.764538
vt 0.373084 0.746142
vt 0.203377 0.083263
vt 0.199981 -0.008399
vt 0.359607 -0.008399
vt 0.367491 0.082672
vt 0.410551 0.348729
vt 0.408988 0.300420
vt 0.406186 0.258096
vt 0.392794 0.991601
vt 0.392718 0.890046
vt 0.385660 0.804201
vt 0.402351 0.215983
vt 0.399874 0.161386
vt 0.382550 0.603520
vt 0.390600 0.541570
vt 0.399760 0.474464
vt 0.375308 0.700622
vt 0.376947 0.655026
vt 0.408609 0.408225
vt 0.410678 0.390788
vt 0.378952 0.745669
vt 0.400898 0.082475
vt 0.392794 -0.008399
vt 0.398932 0.039103
vt 0.209129 0.656557
vt 0.299778 0.657917
vt 0.301214 0.671987
vt 0.195472 0.670276
vt 0.098885 0.654112
vt 0.126342 0.642919
vt 0.164058 0.626864
vt 0.237695 0.629180
vt 0.296020 0.640773
vt 0.386626 0.509866
vt 0.307538 0.500064
vt 0.310369 0.486109
vt 0.402648 0.497684
vt 0.476366 0.518286
vt 0.449855 0.527300
vt 0.414370 0.539216
vt 0.352907 0.534003
vt 0.302147 0.516935
vt 0.492687 0.553912
vt 0.526180 0.549572
vt 0.544219 0.585646
vt 0.508235 0.584637
vt 0.458663 0.583257
vt 0.421961 0.562522
vt 0.074152 0.533427
vt 0.049698 0.571820
vt 0.009271 0.570665
vt 0.037882 0.525641
vt 0.107073 0.492571
vt 0.133349 0.505281
vt 0.169311 0.523406
vt 0.150097 0.549237
vt 0.106058 0.573416
vt 0.379558 0.652504
vt 0.444245 0.638580
vt 0.469838 0.649043
vt 0.394353 0.665539
vt 0.348307 0.626552
vt 0.410057 0.624734
vt 0.489613 0.614409
vt 0.522616 0.620607
vt 0.419932 0.601894
vt 0.217128 0.496348
vt 0.204873 0.481899
vt 0.242888 0.525235
vt 0.070146 0.611495
vt 0.033212 0.617199
vt 0.147474 0.600004
vt 0.290250 0.578583
vt 0.011617 0.621256
vt 0.083000 0.661965
vt 0.072901 0.668148
vt -0.002310 0.624490
vt -0.029886 0.569545
vt -0.014477 0.569986
vt 0.198023 0.471864
vt 0.092016 0.483846
vt 0.082570 0.477115
vt 0.193876 0.464035
vt 0.313681 0.468523
vt 0.312260 0.476283
vt 0.542265 0.624964
vt 0.565796 0.586250
vt 0.580168 0.586653
vt 0.555237 0.628401
vt 0.494722 0.662372
vt 0.484910 0.656467
vt 0.403039 0.674761
vt 0.408670 0.682075
vt 0.302774 0.689711
vt 0.302125 0.681891
vt 0.016753 0.520368
vt 0.003195 0.516352
vt 0.546194 0.546322
vt 0.492114 0.511716
vt 0.502481 0.506369
vt 0.559468 0.543617
vt 0.412213 0.488969
vt 0.418551 0.481986
vt 0.187641 0.679901
vt 0.182723 0.687479
vt 0.165999 1.837857
vt 0.165850 1.837965
vt 0.165624 1.838009
vt 0.165359 1.838013
vt 0.165094 1.838001
vt 0.165029 1.837987
vt 0.165212 1.837418
vt 0.165350 1.837414
vt 0.165615 1.837421
vt 0.165842 1.837467
vt 0.165995 1.837577
vt 0.166053 1.837718
vt 0.164875 1.837953
vt 0.164733 1.837846
vt 0.164682 1.837710
vt 0.164732 1.837575
vt 0.164873 1.837469
vt 0.165089 1.837422
vn -0.2023 0.9777 0.0555
vn -0.0721 0.9966 0.0404
vn -0.0612 0.9977 -0.0290
vn -0.1873 0.9822 -0.0159
vn -0.4408 0.8976 -0.0055
vn -0.4532 0.8878 0.0801
vn -0.4326 0.8397 0.3282
vn -0.1996 0.9422 0.2691
vn -0.0724 0.9658 0.2488
vn 0.7770 0.6286 0.0334
vn 0.9993 0.0000 0.0380
vn 0.9917 0.0000 -0.1287
vn 0.7678 0.6318 -0.1061
vn 0.3731 0.9251 -0.0707
vn 0.3790 0.9250 0.0283
vn 0.3608 0.8766 0.3184
vn 0.7102 0.5785 0.4012
vn 0.8971 0.0000 0.4418
vn -0.2023 -0.9777 0.0557
vn -0.4532 -0.8878 0.0803
vn -0.4409 -0.8976 -0.0055
vn -0.1873 -0.9822 -0.0159
vn -0.0612 -0.9977 -0.0290
vn -0.0720 -0.9966 0.0404
vn -0.0724 -0.9658 0.2488
vn -0.1996 -0.9421 0.2694
vn -0.4326 -0.8396 0.3284
vn 0.7770 -0.6286 0.0334
vn 0.3790 -0.9249 0.0284
vn 0.3730 -0.9251 -0.0707
vn 0.7678 -0.6318 -0.1061
vn 0.7102 -0.5785 0.4012
vn 0.3608 -0.8766 0.3185
vn 0.0668 -0.9973 0.0307
vn 0.0713 -0.9965 -0.0442
vn 0.0649 -0.9643 0.2568
vn -0.7837 0.6111 0.1115
vn -0.7822 0.6230 -0.0008
vn -1.0000 0.0000 0.0000
vn -0.9914 0.0000 0.1310
vn -0.8895 -0.0000 0.4569
vn -0.7179 0.5621 0.4107
vn 0.0667 0.9973 0.0309
vn 0.0713 0.9965 -0.0442
vn 0.0649 0.9643 0.2569
vn -0.7837 -0.6111 0.1115
vn -0.7822 -0.6230 -0.0008
vn -0.7179 -0.5621 0.4107
vn -0.7824 -0.6228 0.0037
vn -1.0000 0.0000 0.0042
vn -0.9999 0.0001 0.0162
vn -0.7875 -0.6161 0.0168
vn -0.4132 -0.9106 0.0093
vn -0.4256 -0.9049 -0.0017
vn 0.0867 0.9955 -0.0384
vn 0.3832 0.9218 -0.0588
vn 0.3935 0.9190 -0.0224
vn 0.1028 0.9945 -0.0198
vn -0.0176 0.9997 -0.0150
vn -0.0393 0.9989 -0.0256
vn -0.7824 0.6228 0.0037
vn -0.4256 0.9049 -0.0017
vn -0.4132 0.9106 0.0094
vn -0.7873 0.6163 0.0166
vn 0.0867 -0.9955 -0.0384
vn -0.0393 -0.9989 -0.0256
vn -0.0176 -0.9997 -0.0147
vn 0.1028 -0.9945 -0.0198
vn 0.3936 -0.9190 -0.0222
vn 0.3831 -0.9218 -0.0588
vn 0.7752 -0.6255 -0.0887
vn 0.7841 -0.6197 -0.0357
vn 0.9986 0.0000 -0.0525
vn 0.9940 0.0000 -0.1095
vn -0.1612 -0.9868 -0.0131
vn -0.1363 -0.9907 -0.0048
vn 0.7752 0.6255 -0.0887
vn 0.7840 0.6197 -0.0362
vn -0.1612 0.9868 -0.0131
vn -0.1365 0.9906 -0.0050
vn -0.3079 -0.6597 -0.6856
vn -0.6075 -0.4357 -0.6642
vn -0.7713 0.0347 -0.6355
vn 0.1039 0.7215 -0.6845
vn 0.1827 0.7232 -0.6660
vn 0.3830 0.6819 -0.6231
vn -0.5934 0.5026 -0.6288
vn -0.2951 0.7143 -0.6346
vn 0.3896 -0.6622 -0.6401
vn 0.1873 -0.7045 -0.6845
vn 0.1069 -0.7028 -0.7033
vn 0.8230 0.0108 -0.5679
vn 0.6647 -0.4426 -0.6019
vn 0.0122 -0.7179 -0.6960
vn -0.0869 -0.6636 -0.7430
vn 0.6592 0.4651 -0.5909
vn -0.0758 0.7463 -0.6613
vn 0.0512 0.7061 -0.7062
vn 0.0059 -0.1583 0.9874
vn -0.0124 -0.1629 0.9866
vn -0.0340 -0.4533 0.8907
vn 0.0205 -0.4407 0.8974
vn 0.1165 -0.3615 0.9251
vn 0.0383 -0.1280 0.9910
vn 0.0109 -0.0354 0.9993
vn 0.0026 -0.0368 0.9993
vn -0.0033 -0.0463 0.9989
vn -0.0287 0.1564 0.9873
vn -0.0124 0.1629 0.9866
vn -0.0340 0.4533 0.8907
vn -0.0841 0.4332 0.8974
vn -0.1608 0.3562 0.9205
vn -0.0546 0.1257 0.9906
vn -0.0159 0.0368 0.9992
vn -0.0076 0.0357 0.9993
vn -0.0033 0.0460 0.9989
vn -0.0779 0.0724 0.9943
vn -0.2340 0.2094 0.9494
vn -0.2714 0.0000 0.9625
vn -0.0895 0.0000 0.9960
vn -0.0264 -0.0000 0.9997
vn -0.0156 0.0135 0.9998
vn 0.0684 0.0675 0.9954
vn 0.0800 0.0000 0.9968
vn 0.2449 0.0000 0.9696
vn 0.2080 0.1981 0.9578
vn 0.1165 0.3614 0.9251
vn 0.0383 0.1279 0.9910
vn 0.0109 0.0354 0.9993
vn 0.0142 0.0137 0.9998
vn 0.0232 -0.0000 0.9997
vn -0.0287 -0.1563 0.9873
vn -0.0546 -0.1256 0.9906
vn -0.1608 -0.3563 0.9204
vn -0.0841 -0.4333 0.8973
vn -0.0076 -0.0357 0.9993
vn -0.0159 -0.0368 0.9992
vn -0.0779 -0.0724 0.9943
vn -0.2340 -0.2094 0.9494
vn -0.0156 -0.0135 0.9998
vn 0.0059 0.1583 0.9874
vn 0.0204 0.4407 0.8974
vn 0.0026 0.0368 0.9993
vn 0.0684 -0.0675 0.9954
vn 0.2080 -0.1981 0.9578
vn 0.0142 -0.0137 0.9998
vn -0.0006 0.0000 1.0000
vn 0.4710 -0.4158 0.7780
vn 0.2541 -0.6769 0.6908
vn 0.5769 0.0000 0.8168
vn 0.0489 0.7864 0.6157
vn 0.2541 0.6769 0.6908
vn -0.0602 0.7997 0.5973
vn -0.5031 -0.4187 0.7561
vn -0.6063 -0.0000 0.7953
vn -0.3247 -0.6586 0.6789
vn -0.1605 -0.7704 0.6171
vn -0.0602 -0.7996 0.5976
vn 0.4710 0.4158 0.7780
vn -0.5031 0.4187 0.7561
vn -0.3247 0.6586 0.6789
vn -0.1605 0.7704 0.6170
vn 0.0489 -0.7863 0.6159
usemtl Handle_wood
s 1
f 1/1/1 2/2/2 3/3/3 4/4/4
f 1/1/1 4/4/4 5/5/5 6/6/6
f 1/1/1 6/6/6 7/7/7 8/8/8
f 1/1/1 8/8/8 9/9/9 2/2/2
f 10/10/10 11/11/11 12/12/12 13/13/13
f 10/10/10 13/13/13 14/14/14 15/15/15
f 10/10/10 15/15/15 16/16/16 17/17/17
f 10/10/10 17/17/17 18/18/18 11/11/11
f 19/19/19 20/20/20 21/21/21 22/22/22
f 19/19/19 22/22/22 23/23/23 24/24/24
f 19/19/19 24/24/24 25/25/25 26/26/26
f 19/19/19 26/26/26 27/27/27 20/20/20
f 28/28/28 29/29/29 30/30/30 31/31/31
f 28/28/28 31/31/31 12/12/12 11/11/11
f 28/28/28 11/11/11 18/18/18 32/32/32
f 28/28/28 32/32/32 33/33/33 29/29/29
f 34/34/34 24/24/24 23/23/23 35/35/35
f 34/34/34 35/35/35 30/30/30 29/29/29
f 34/34/34 29/29/29 33/33/33 36/36/36
f 34/34/34 36/36/36 25/25/25 24/24/24
f 37/37/37 6/6/6 5/5/5 38/38/38
f 37/37/37 38/38/38 39/39/39 40/40/40
f 37/37/37 40/40/40 41/41/41 42/42/42
f 37/37/37 42/42/42 7/7/7 6/6/6
f 43/43/43 15/15/15 14/14/14 44/44/44
f 43/43/43 44/44/44 3/45/3 2/46/2
f 43/43/43 2/46/2 9/47/9 45/48/45
f 43/43/43 45/48/45 16/16/16 15/15/15
f 46/49/46 40/40/40 39/39/39 47/50/47
f 46/49/46 47/50/47 21/21/21 20/20/20
f 46/49/46 20/20/20 27/27/27 48/51/48
f 46/49/46 48/51/48 41/41/41 40/40/40
f 65/52/49 66/53/50 51/54/51 50/55/52
f 65/52/49 50/55/52 49/56/53 67/57/54
f 65/52/49 67/57/54 21/21/21 47/50/47
f 65/52/49 47/50/47 39/39/39 66/53/50
f 68/58/55 69/59/56 54/60/57 53/61/58
f 68/58/55 53/61/58 52/62/59 70/63/60
f 68/58/55 70/63/60 3/45/3 44/44/44
f 68/58/55 44/44/44 14/14/14 69/59/56
f 71/64/61 72/65/62 56/66/63 55/67/64
f 71/64/61 55/67/64 51/54/51 66/53/50
f 71/64/61 66/53/50 39/39/39 38/38/38
f 71/64/61 38/38/38 5/5/5 72/65/62
f 73/68/65 74/69/66 59/70/67 58/71/68
f 73/68/65 58/71/68 57/72/69 75/73/70
f 73/68/65 75/73/70 30/30/30 35/35/35
f 73/68/65 35/35/35 23/23/23 74/69/66
f 76/74/71 75/73/70 57/72/69 61/75/72
f 76/74/71 61/75/72 60/76/73 77/77/74
f 76/74/71 77/77/74 12/12/12 31/31/31
f 76/74/71 31/31/31 30/30/30 75/73/70
f 78/78/75 67/57/54 49/56/53 62/79/76
f 78/78/75 62/79/76 59/70/67 74/69/66
f 78/78/75 74/69/66 23/23/23 22/22/22
f 78/78/75 22/22/22 21/21/21 67/57/54
f 79/80/77 77/77/74 60/76/73 63/81/78
f 79/80/77 63/81/78 54/60/57 69/59/56
f 79/80/77 69/59/56 14/14/14 13/13/13
f 79/80/77 13/13/13 12/12/12 77/77/74
f 80/82/79 70/83/60 52/84/59 64/85/80
f 80/82/79 64/85/80 56/66/63 72/65/62
f 80/82/79 72/65/62 5/5/5 4/4/4
f 80/82/79 4/4/4 3/3/3 70/83/60
f 163/86/81 49/56/53 50/55/52 160/87/82
f 160/87/82 50/55/52 51/54/51 161/88/83
f 148/89/84 52/62/59 53/61/58 153/90/85
f 53/61/58 54/60/57 155/91/86 153/90/85
f 161/88/83 51/54/51 55/67/64 159/92/87
f 159/92/87 55/67/64 56/66/63 162/93/88
f 154/94/89 57/72/69 58/71/68 152/95/90
f 152/95/90 58/71/68 59/70/67 151/96/91
f 156/97/92 60/76/73 61/75/72 157/98/93
f 157/98/93 61/75/72 57/72/69 154/94/89
f 151/96/91 59/70/67 62/79/76 150/99/94
f 150/99/94 62/79/76 49/56/53 163/86/81 149/100/95
f 54/60/57 63/81/78 158/101/96 155/91/86
f 158/101/96 63/81/78 60/76/73 156/97/92
f 162/93/88 56/66/63 64/85/80 146/102/97
f 146/102/97 64/85/80 52/84/59 148/103/84 147/104/98
usemtl Handle_top
f 81/105/99 82/106/100 83/107/101 84/108/102
f 81/105/99 84/108/102 85/109/103 86/110/104
f 81/105/99 86/110/104 87/111/105 88/112/106
f 81/105/99 88/112/106 89/113/107 82/106/100
f 90/114/108 91/115/109 92/116/110 93/117/111
f 90/114/108 93/117/111 94/118/112 95/119/113
f 90/114/108 95/119/113 96/120/114 97/121/115
f 90/114/108 97/121/115 98/122/116 91/115/109
f 99/123/117 95/119/113 94/118/112 100/124/118
f 99/123/117 100/124/118 101/125/119 102/126/120
f 99/123/117 102/126/120 103/127/121 104/128/122
f 99/123/117 104/128/122 96/120/114 95/119/113
f 105/129/123 106/130/124 107/131/125 108/132/126
f 105/129/123 108/132/126 109/133/127 110/134/128
f 105/129/123 110/134/128 111/135/129 112/136/130
f 105/129/123 112/136/130 113/137/131 106/130/124
f 114/138/132 115/139/133 116/140/134 117/141/135
f 114/138/132 117/141/135 83/107/101 82/106/100
f 114/138/132 82/106/100 89/113/107 118/142/136
f 114/138/132 118/142/136 119/143/137 115/139/133
f 120/144/138 102/126/120 101/125/119 121/145/139
f 120/144/138 121/145/139 116/140/134 115/139/133
f 120/144/138 115/139/133 119/143/137 122/146/140
f 120/144/138 122/146/140 103/127/121 102/126/120
f 123/147/141 110/134/128 109/133/127 124/148/142
f 123/147/141 124/148/142 92/116/110 91/115/109
f 123/147/141 91/115/109 98/122/116 125/149/143
f 123/147/141 125/149/143 111/135/129 110/134/128
f 126/150/144 86/110/104 85/109/103 127/151/145
f 126/150/144 127/151/145 107/131/125 106/130/124
f 126/150/144 106/130/124 113/137/131 128/152/146
f 126/150/144 128/152/146 87/111/105 86/110/104
f 129/153/147 112/136/130 111/135/129 125/149/143
f 129/153/147 125/149/143 98/122/116 97/121/115
f 129/153/147 97/121/115 96/120/114 104/128/122
f 129/153/147 104/128/122 103/127/121 122/146/140
f 129/153/147 122/146/140 119/143/137 118/142/136
f 129/153/147 118/142/136 89/113/107 88/112/106
f 129/153/147 88/112/106 87/111/105 128/152/146
f 129/153/147 128/152/146 113/137/131 112/136/130
f 130/154/148 131/155/149 33/156/33 32/157/32
f 130/154/148 32/157/32 18/158/18 132/159/150
f 130/154/148 132/159/150 107/131/125 127/151/145
f 130/154/148 127/151/145 85/109/103 131/155/149
f 133/160/151 134/161/152 16/162/16 45/163/45
f 133/160/151 45/163/45 9/164/9 135/165/153
f 133/160/151 135/165/153 92/116/110 124/148/142
f 133/160/151 124/148/142 109/133/127 134/161/152
f 136/166/154 137/167/155 41/168/41 48/169/48
f 136/166/154 48/169/48 27/170/27 138/171/156
f 136/166/154 138/171/156 116/140/134 121/145/139
f 136/166/154 121/145/139 101/125/119 137/167/155
f 139/172/157 138/171/156 27/170/27 26/173/26
f 139/172/157 26/173/26 25/174/25 140/175/158
f 139/172/157 140/175/158 83/107/101 117/141/135
f 139/172/157 117/141/135 116/140/134 138/171/156
f 141/176/159 132/159/150 18/158/18 17/177/17
f 141/176/159 17/177/17 16/162/16 134/161/152
f 141/176/159 134/161/152 109/133/127 108/132/126
f 141/176/159 108/132/126 107/131/125 132/159/150
f 142/178/160 143/179/161 7/180/7 42/181/42
f 142/178/160 42/181/42 41/168/41 137/167/155
f 142/178/160 137/167/155 101/125/119 100/124/118
f 142/178/160 100/124/118 94/118/112 143/179/161
f 144/182/162 135/165/153 9/164/9 8/183/8
f 144/182/162 8/183/8 7/180/7 143/179/161
f 144/182/162 143/179/161 94/118/112 93/117/111
f 144/182/162 93/117/111 92/116/110 135/165/153
f 145/184/163 140/175/158 25/174/25 36/185/36
f 145/184/163 36/185/36 33/156/33 131/155/149
f 145/184/163 131/155/149 85/109/103 84/108/102
f 145/184/163 84/108/102 83/107/101 140/175/158
f 157/186/93 154/187/89 152/188/90 151/189/91 150/190/94 149/191/95 147/192/98 148/193/84 153/194/85 155/195/86 158/196/96 156/197/92
f 163/198/81 160/199/82 161/200/83 159/201/87 162/202/88 146/203/97 147/192/98 149/191/95
