# Blender MTL File: 'None'
# Material Count: 15

newmtl ClayPipe__2158a6_.001
Ns 179.999996
Ka 1.000000 1.000000 1.000000
Kd 1.000000 1.000000 1.000000
Ks 0.500000 0.500000 0.500000
Ke 0.000000 0.000000 0.000000
Ni 1.450000
d 1.000000
illum 2
map_Kd Modelos\\Pipa tallada de arcilla\\textures\\ClayPipe (2158a6).jpeg

newmtl Handle_top.001
Ns 179.999996
Ka 1.000000 1.000000 1.000000
Kd 0.800000 0.800000 0.800000
Ks 0.500000 0.500000 0.500000
Ke 0.000000 0.000000 0.000000
Ni 1.450000
d 1.000000
illum 2
map_Kd Modelos\\Cuchillo de piedra\\textures\\Birch.jpg

newmtl Handle_wood.001
Ns 179.999996
Ka 1.000000 1.000000 1.000000
Kd 0.800000 0.800000 0.800000
Ks 0.500000 0.500000 0.500000
Ke 0.000000 0.000000 0.000000
Ni 1.450000
d 1.000000
illum 2
map_Kd Modelos\\Cuchillo de piedra\\textures\\Light brown fine wood.jpg

newmtl Jarrinha3.001
Ns 179.999996
Ka 1.000000 1.000000 1.000000
Kd 1.000000 1.000000 1.000000
Ks 0.500000 0.500000 0.500000
Ke 0.000000 0.000000 0.000000
Ni 1.450000
d 1.000000
illum 2
map_Kd Modelos\\Jarra de ceramica\\Jarrinha3.jpeg

newmtl Or231_Glass_Bottle__2351a1774_.001
Ns 179.999996
Ka 1.000000 1.000000 1.000000
Kd 1.000000 1.000000 1.000000
Ks 0.500000 0.500000 0.500000
Ke 0.000000 0.000000 0.000000
Ni 1.450000
d 1.000000
illum 2
map_Kd Modelos\\Botella de cristal\\textures\\Or231 Glass Bottle (2351a1774).jpeg

newmtl Sw_Catawba_Pan__2176p3_.001
Ns 179.999996
Ka 1.000000 1.000000 1.000000
Kd 1.000000 1.000000 1.000000
Ks 0.500000 0.500000 0.500000
Ke 0.000000 0.000000 0.000000
Ni 1.450000
d 1.000000
illum 2
map_Kd Modelos\\Cuenco Catawba\\textures\\Sw Catawba Pan (2176p3).jpeg

newmtl Textura_craneo_homo_erectus_actualizada.001
Ns 179.999996
Ka 1.000000 1.000000 1.000000
Kd 1.000000 1.000000 1.000000
Ks 0.500000 0.500000 0.500000
Ke 0.000000 0.000000 0.000000
Ni 1.450000
d 1.000000
illum 2
map_Kd Modelos\\Craneo de Homo Erectus\\textures\\Textura craneo homo erectus actualizada.png

newmtl material_0.001
Ns 179.999996
Ka 1.000000 1.000000 1.000000
Kd 1.000000 1.000000 1.000000
Ks 0.500000 0.500000 0.500000
Ke 0.000000 0.000000 0.000000
Ni 1.450000
d 1.000000
illum 2
map_Kd Modelos\\Ciudad romana de Carranque\\Carranque_Total_Data_2_u1_v1.jpeg

newmtl material_1.001
Ns 179.999996
Ka 1.000000 1.000000 1.000000
Kd 1.000000 1.000000 1.000000
Ks 0.500000 0.500000 0.500000
Ke 0.000000 0.000000 0.000000
Ni 1.450000
d 1.000000
illum 2
map_Kd Modelos\\Ciudad romana de Carranque\\Carranque_Total_Data_2_u2_v1.jpeg

newmtl material_2.001
Ns 179.999996
Ka 1.000000 1.000000 1.000000
Kd 1.000000 1.000000 1.000000
Ks 0.500000 0.500000 0.500000
Ke 0.000000 0.000000 0.000000
Ni 1.450000
d 1.000000
illum 2
map_Kd Modelos\\Ciudad romana de Carranque\\Carranque_Total_Data_2_u3_v1.jpeg

newmtl material_3.001
Ns 179.999996
Ka 1.000000 1.000000 1.000000
Kd 1.000000 1.000000 1.000000
Ks 0.500000 0.500000 0.500000
Ke 0.000000 0.000000 0.000000
Ni 1.450000
d 1.000000
illum 2
map_Kd Modelos\\Ciudad romana de Carranque\\Carranque_Total_Data_2_u1_v2.jpeg

newmtl material_4.001
Ns 179.999996
Ka 1.000000 1.000000 1.000000
Kd 1.000000 1.000000 1.000000
Ks 0.500000 0.500000 0.500000
Ke 0.000000 0.000000 0.000000
Ni 1.450000
d 1.000000
illum 2
map_Kd Modelos\\Ciudad romana de Carranque\\Carranque_Total_Data_2_u2_v2.jpeg

newmtl material_5.001
Ns 179.999996
Ka 1.000000 1.000000 1.000000
Kd 1.000000 1.000000 1.000000
Ks 0.500000 0.500000 0.500000
Ke 0.000000 0.000000 0.000000
Ni 1.450000
d 1.000000
illum 2
map_Kd Modelos\\Ciudad romana de Carranque\\Carranque_Total_Data_2_u3_v2.jpeg

newmtl material_6.001
Ns 179.999996
Ka 1.000000 1.000000 1.000000
Kd 1.000000 1.000000 1.000000
Ks 0.500000 0.500000 0.500000
Ke 0.000000 0.000000 0.000000
Ni 1.450000
d 1.000000
illum 2
map_Kd Modelos\\Ciudad romana de Carranque\\Carranque_Total_Data_2_u1_v3.jpeg

newmtl material_7.001
Ns 179.999996
Ka 1.000000 1.000000 1.000000
Kd 1.000000 1.000000 1.000000
Ks 0.500000 0.500000 0.500000
Ke 0.000000 0.000000 0.000000
Ni 1.450000
d 1.000000
illum 2
map_Kd Modelos\\Ciudad romana de Carranque\\Carranque_Total_Data_2_u2_v3.jpeg
