# Blender MTL File: 'None'
# Material Count: 4

newmtl Color_A05
Ns 225.000000
Ka 1.000000 1.000000 1.000000
Kd 0.800000 0.800000 0.800000
Ks 0.500000 0.500000 0.500000
Ke 0.000000 0.000000 0.000000
Ni 1.450000
d 1.000000
illum 2
map_Kd model\\Color_A05.jpg

newmtl PLANT_PIX_SAMPLE_Pot
Ns 225.000000
Ka 1.000000 1.000000 1.000000
Kd 0.800000 0.800000 0.800000
Ks 0.500000 0.500000 0.500000
Ke 0.000000 0.000000 0.000000
Ni 1.450000
d 1.000000
illum 2
map_Kd model\\PLANT_PIX_SAMPLE_Pot.tif

newmtl __Color_A05_6
Ns 225.000000
Ka 1.000000 1.000000 1.000000
Kd 0.800000 0.800000 0.800000
Ks 0.500000 0.500000 0.500000
Ke 0.000000 0.000000 0.000000
Ni 1.450000
d 0.000000
illum 9
map_Kd model\\__Color_A05_6.jpg

newmtl material
Ns 225.000000
Ka 1.000000 1.000000 1.000000
Kd 0.917647 0.839216 0.678431
Ks 0.500000 0.500000 0.500000
Ke 0.000000 0.000000 0.000000
Ni 1.450000
d 1.000000
illum 2
